<svg xmlns="http://www.w3.org/2000/svg" xmlns:xlink="http://www.w3.org/1999/xlink" width="375" height="340.271" viewBox="0 0 375 340.271">
  <defs>
    <clipPath id="clip-Submit_Checkmark_4">
      <rect width="375" height="340.271"/>
    </clipPath>
  </defs>
  <g id="Submit_Checkmark_4" data-name="Submit, Checkmark – 4" clip-path="url(#clip-Submit_Checkmark_4)">
    <g id="Rectangle_1491" data-name="Rectangle 1491" transform="translate(80 63)" fill="#292929" stroke="#292929" stroke-width="4">
      <rect width="215.271" height="215.271" rx="45" stroke="none"/>
      <rect x="2" y="2" width="211.271" height="211.271" rx="43" fill="none"/>
    </g>
    <text id="Submit" transform="translate(87.176 192.973)" fill="#292929" font-size="59" font-family="OpenSans, Open Sans" opacity="0"><tspan x="0" y="0">Submit</tspan></text>
    <g id="Check" transform="translate(110.991 166.58)">
      <rect id="Rectangle_1492" data-name="Rectangle 1492" width="81.325" height="21.527" rx="6" transform="translate(13.547 0) rotate(39)" fill="#fff"/>
      <rect id="Rectangle_1493" data-name="Rectangle 1493" width="23.919" height="21.527" rx="6" transform="matrix(0.616, -0.788, 0.788, 0.616, 48.426, 54.857)" fill="#fff"/>
    </g>
  </g>
</svg>
